{		
	"Graph" : 
	{
		"name" : "MainGraph",
		"components":
		{
			"MyComponent":
			{
				"name":"MyComponent01",
				"myInt":"12",
				"myValue" : "@MainGraph/MyComponent02/myInt"
			},
			"MyComponent":
			{
				"name":"MyComponent02",
				"myInt":"98"	
			}
		},
		"modules" :
		{
			"Module" : 
			{
				"name" : "Module01",	
				"verbose": "true",
				"components":
				{
					"MyComponent":
					{
						"name":"MyComponent03",
						"myInt":"65"	
					}
				}
			}
				
		}
	}
}
